{"failedCount":0,"prefixedPath":"api\/test.feature","packageQualifiedName":"api.test","loopIndex":-1,"relativePath":"api\/test.feature","scenarioResults":[{"sectionIndex":0,"stepResults":[{"result":{"nanos":372639815,"millis":372.639815,"status":"passed"},"step":{"line":4,"prefix":"Given","index":0,"text":"url 'http:\/\/reqres.in\/api\/users?page=2'"}},{"result":{"nanos":2006190370,"millis":2006.19037,"status":"passed"},"step":{"line":5,"prefix":"When","index":1,"text":"method GET"},"stepLog":"10:34:11.794 request:\n1 > GET http:\/\/reqres.in\/api\/users?page=2\n1 > Host: reqres.in\n1 > Connection: Keep-Alive\n1 > User-Agent: Apache-HttpClient\/4.5.14 (Java\/17.0.6)\n1 > Accept-Encoding: gzip,deflate\n\n\n10:34:12.010 request:\n2 > GET http:\/\/reqres.in\/api\/users?page=2\n2 > Host: reqres.in\n2 > Connection: Keep-Alive\n2 > User-Agent: Apache-HttpClient\/4.5.14 (Java\/17.0.6)\n2 > Accept-Encoding: gzip,deflate\n\n\n10:34:12.838 response time in milliseconds: 780\n2 < 200\n2 < Date: Thu, 18 May 2023 08:34:15 GMT\n2 < Content-Type: application\/json; charset=utf-8\n2 < Transfer-Encoding: chunked\n2 < Connection: keep-alive\n2 < X-Powered-By: Express\n2 < Access-Control-Allow-Origin: *\n2 < Etag: W\/\"406-ut0vzoCuidvyMf8arZpMpJ6ZRDw\"\n2 < Via: 1.1 vegur\n2 < Cache-Control: max-age=14400\n2 < CF-Cache-Status: HIT\n2 < Age: 5322\n2 < Report-To: {\"endpoints\":[{\"url\":\"https:\\\/\\\/a.nel.cloudflare.com\\\/report\\\/v3?s=EakwXeAZ3djkApc04Nmf%2F%2Foohe9FK767F0HQ5evZEk7r27wbGJ6l4fq3GtN3mB9dNtQ%2BYHCtNxB8VXO%2FDy6uqV0BO9iDg3yDvQkPuYiU7hCnFso4kPlH%2FRDUJA%3D%3D\"}],\"group\":\"cf-nel\",\"max_age\":604800}\n2 < NEL: {\"success_fraction\":0,\"report_to\":\"cf-nel\",\"max_age\":604800}\n2 < Vary: Accept-Encoding\n2 < Server: cloudflare\n2 < CF-RAY: 7c92c2906cbdfbda-WAW\n{\"page\":2,\"per_page\":6,\"total\":12,\"total_pages\":2,\"data\":[{\"id\":7,\"email\":\"michael.lawson@reqres.in\",\"first_name\":\"Michael\",\"last_name\":\"Lawson\",\"avatar\":\"https:\/\/reqres.in\/img\/faces\/7-image.jpg\"},{\"id\":8,\"email\":\"lindsay.ferguson@reqres.in\",\"first_name\":\"Lindsay\",\"last_name\":\"Ferguson\",\"avatar\":\"https:\/\/reqres.in\/img\/faces\/8-image.jpg\"},{\"id\":9,\"email\":\"tobias.funke@reqres.in\",\"first_name\":\"Tobias\",\"last_name\":\"Funke\",\"avatar\":\"https:\/\/reqres.in\/img\/faces\/9-image.jpg\"},{\"id\":10,\"email\":\"byron.fields@reqres.in\",\"first_name\":\"Byron\",\"last_name\":\"Fields\",\"avatar\":\"https:\/\/reqres.in\/img\/faces\/10-image.jpg\"},{\"id\":11,\"email\":\"george.edwards@reqres.in\",\"first_name\":\"George\",\"last_name\":\"Edwards\",\"avatar\":\"https:\/\/reqres.in\/img\/faces\/11-image.jpg\"},{\"id\":12,\"email\":\"rachel.howell@reqres.in\",\"first_name\":\"Rachel\",\"last_name\":\"Howell\",\"avatar\":\"https:\/\/reqres.in\/img\/faces\/12-image.jpg\"}],\"support\":{\"url\":\"https:\/\/reqres.in\/#support-heading\",\"text\":\"To keep ReqRes free, contributions towards server costs are appreciated!\"}}\n\n"},{"result":{"nanos":24035,"millis":0.024035,"status":"passed"},"step":{"line":6,"prefix":"Then","index":2,"text":"status 200"}},{"result":{"nanos":202861061,"millis":202.861061,"status":"passed"},"step":{"line":7,"prefix":"And","index":3,"text":"print responseStatus"},"stepLog":"10:34:13.156 [print] 200 \n"}],"executorName":"main","line":3,"name":"GET DEMO 1","description":"","durationMillis":2581.715281,"startTime":1684398850516,"failed":false,"refId":"[1:3]","endTime":1684398853158,"exampleIndex":-1}],"callDepth":0,"name":"Karate Test","description":"","resultDate":"2023-05-18 10:34:13 am","durationMillis":2581.715281,"passedCount":1}