{"failedCount":1,"prefixedPath":"api\/test.feature","packageQualifiedName":"api.test","loopIndex":-1,"relativePath":"api\/test.feature","scenarioResults":[{"sectionIndex":0,"stepResults":[{"result":{"nanos":419968658,"millis":419.968658,"status":"passed"},"step":{"line":4,"prefix":"Given","index":0,"text":"url 'http:\/\/reqres.in\/api\/users?page=2'"}},{"result":{"nanos":1950429380,"millis":1950.42938,"status":"passed"},"step":{"line":5,"prefix":"When","index":1,"text":"method GET"},"stepLog":"10:33:34.108 request:\n1 > GET http:\/\/reqres.in\/api\/users?page=2\n1 > Host: reqres.in\n1 > Connection: Keep-Alive\n1 > User-Agent: Apache-HttpClient\/4.5.14 (Java\/17.0.6)\n1 > Accept-Encoding: gzip,deflate\n\n\n10:33:34.281 request:\n2 > GET http:\/\/reqres.in\/api\/users?page=2\n2 > Host: reqres.in\n2 > Connection: Keep-Alive\n2 > User-Agent: Apache-HttpClient\/4.5.14 (Java\/17.0.6)\n2 > Accept-Encoding: gzip,deflate\n\n\n10:33:35.006 response time in milliseconds: 683\n2 < 200\n2 < Date: Thu, 18 May 2023 08:33:37 GMT\n2 < Content-Type: application\/json; charset=utf-8\n2 < Transfer-Encoding: chunked\n2 < Connection: keep-alive\n2 < X-Powered-By: Express\n2 < Access-Control-Allow-Origin: *\n2 < Etag: W\/\"406-ut0vzoCuidvyMf8arZpMpJ6ZRDw\"\n2 < Via: 1.1 vegur\n2 < Cache-Control: max-age=14400\n2 < CF-Cache-Status: HIT\n2 < Age: 5284\n2 < Report-To: {\"endpoints\":[{\"url\":\"https:\\\/\\\/a.nel.cloudflare.com\\\/report\\\/v3?s=nYFa3UnqUlmMKy4mqYF7%2FfGR3h9e3R%2FAFxVKk101GUOY%2FuFEo6ym%2B7QNhLViF6LFQeQh3lUGr3jrXV6l%2BOxGrtxGyrKwVPbu6qIsfr%2FDthDBspjCevCA5ZWayw%3D%3D\"}],\"group\":\"cf-nel\",\"max_age\":604800}\n2 < NEL: {\"success_fraction\":0,\"report_to\":\"cf-nel\",\"max_age\":604800}\n2 < Vary: Accept-Encoding\n2 < Server: cloudflare\n2 < CF-RAY: 7c92c1a40e055048-WAW\n{\"page\":2,\"per_page\":6,\"total\":12,\"total_pages\":2,\"data\":[{\"id\":7,\"email\":\"michael.lawson@reqres.in\",\"first_name\":\"Michael\",\"last_name\":\"Lawson\",\"avatar\":\"https:\/\/reqres.in\/img\/faces\/7-image.jpg\"},{\"id\":8,\"email\":\"lindsay.ferguson@reqres.in\",\"first_name\":\"Lindsay\",\"last_name\":\"Ferguson\",\"avatar\":\"https:\/\/reqres.in\/img\/faces\/8-image.jpg\"},{\"id\":9,\"email\":\"tobias.funke@reqres.in\",\"first_name\":\"Tobias\",\"last_name\":\"Funke\",\"avatar\":\"https:\/\/reqres.in\/img\/faces\/9-image.jpg\"},{\"id\":10,\"email\":\"byron.fields@reqres.in\",\"first_name\":\"Byron\",\"last_name\":\"Fields\",\"avatar\":\"https:\/\/reqres.in\/img\/faces\/10-image.jpg\"},{\"id\":11,\"email\":\"george.edwards@reqres.in\",\"first_name\":\"George\",\"last_name\":\"Edwards\",\"avatar\":\"https:\/\/reqres.in\/img\/faces\/11-image.jpg\"},{\"id\":12,\"email\":\"rachel.howell@reqres.in\",\"first_name\":\"Rachel\",\"last_name\":\"Howell\",\"avatar\":\"https:\/\/reqres.in\/img\/faces\/12-image.jpg\"}],\"support\":{\"url\":\"https:\/\/reqres.in\/#support-heading\",\"text\":\"To keep ReqRes free, contributions towards server costs are appreciated!\"}}\n\n"},{"result":{"nanos":27201,"millis":0.027201,"status":"passed"},"step":{"line":6,"prefix":"Then","index":2,"text":"status 200"}},{"result":{"nanos":145198695,"errorMessage":"js failed:\n>>>>\n01: karate.log('[print]',status)\n<<<<\norg.graalvm.polyglot.PolyglotException: ReferenceError: \"status\" is not defined\n- <js>.:program(Unnamed:1)\n\napi\/test.feature:7","millis":145.198695,"status":"failed"},"step":{"line":7,"prefix":"And","index":3,"text":"print status"},"stepLog":"10:33:35.317 api\/test.feature:7\nAnd print status\njs failed:\n>>>>\n01: karate.log('[print]',status)\n<<<<\norg.graalvm.polyglot.PolyglotException: ReferenceError: \"status\" is not defined\n- <js>.:program(Unnamed:1)\n\napi\/test.feature:7\n"}],"line":3,"description":"","durationMillis":2515.623934,"failed":true,"error":"js failed:\n>>>>\n01: karate.log('[print]',status)\n<<<<\norg.graalvm.polyglot.PolyglotException: ReferenceError: \"status\" is not defined\n- <js>.:program(Unnamed:1)\n\napi\/test.feature:7","executorName":"main","name":"GET DEMO 1","startTime":1684398812680,"refId":"[1:3]","endTime":1684398815317,"exampleIndex":-1}],"callDepth":0,"name":"Karate Test","description":"","resultDate":"2023-05-18 10:33:35 am","durationMillis":2515.623934,"passedCount":0}